{
    "actors" :
    {
        "waiter" : { 
			"host": "localhost",
			"port": "8020",
			"qakdest": "basicrobot",
			"ctxqadest": "ctxbasicrobot"
		},
		 
        "tearoom" : { 
			"host": "127.0.0.1",
			"port": "8010",
			"qakdest": "smartbell",
			"ctxqadest": "ctxtearoom"
		},
        "waiterwalker": { 
			"host": "localhost",
			"port": "8060",
			"qakdest": "waiterwalker",
			"ctxqadest": "ctxwaiter"
		}
    }
}

